Climate Change · Portfolio website for Etra Bianco
…
#The code below creates a new data frame called `comparison` that groups data 
#in three time periods: 1990-2000, 2000-2010, 2010-2020. 

comparison <- tidyweather %>% 
  filter(Year>= 1990) %>%     #remove years prior to 1990
  #create new variable 'interval', and assign values based on criteria below:
  mutate(interval = case_when(
    Year %in% c(1990:2000) ~ "1990-2000",
    Year %in% c(2000:2010) ~ "2000-2010",
    Year %in% c(2010:2020) ~ "2010-2020"))
  
  comparison 

## # A tibble: 360 x 7
##     Year Month delta date       month  year interval 
##    <dbl> <chr> <dbl> <date>     <ord> <dbl> <chr>    
##  1  1990 Jan    0.45 1990-01-01 Jan    1990 1990-2000
##  2  1990 Feb    0.5  1990-02-01 Feb    1990 1990-2000
##  3  1990 Mar    1.15 1990-03-01 Mar    1990 1990-2000
##  4  1990 Apr    0.66 1990-04-01 Apr    1990 1990-2000
##  5  1990 May    0.47 1990-05-01 May    1990 1990-2000
##  6  1990 Jun    0.49 1990-06-01 Jun    1990 1990-2000
##  7  1990 Jul    0.31 1990-07-01 Jul    1990 1990-2000
##  8  1990 Aug    0.36 1990-08-01 Aug    1990 1990-2000
##  9  1990 Sep    0.41 1990-09-01 Sep    1990 1990-2000
## 10  1990 Oct    0.46 1990-10-01 Oct    1990 1990-2000
## # … with 350 more rows

  comparison %>%
  rename("Delta" = "delta" , 'Full Date' = 'date',
         'Months' = 'month','Years' = 'year' ,
         'Interval' = 'interval')

## # A tibble: 360 x 7
##     Year Month Delta `Full Date` Months Years Interval 
##    <dbl> <chr> <dbl> <date>      <ord>  <dbl> <chr>    
##  1  1990 Jan    0.45 1990-01-01  Jan     1990 1990-2000
##  2  1990 Feb    0.5  1990-02-01  Feb     1990 1990-2000
##  3  1990 Mar    1.15 1990-03-01  Mar     1990 1990-2000
##  4  1990 Apr    0.66 1990-04-01  Apr     1990 1990-2000
##  5  1990 May    0.47 1990-05-01  May     1990 1990-2000
##  6  1990 Jun    0.49 1990-06-01  Jun     1990 1990-2000
##  7  1990 Jul    0.31 1990-07-01  Jul     1990 1990-2000
##  8  1990 Aug    0.36 1990-08-01  Aug     1990 1990-2000
##  9  1990 Sep    0.41 1990-09-01  Sep     1990 1990-2000
## 10  1990 Oct    0.46 1990-10-01  Oct     1990 1990-2000
## # … with 350 more rows
…
