…
test<- covid_data %>% 
  group_by(name) %>%
  mutate(
    January= dplyr::first(dollar_price) , 
    July = dplyr::last(dollar_price)
  ) %>%
  select(name,January,July) %>%
  mutate(percentage_change = round(((July - January)/January)*100,2)) %>% 
  slice(1:10) 
test <- test[!duplicated(test$name),]
test

## # A tibble: 56 x 4
## # Groups:   name [56]
##    name       January  July percentage_change
##    <chr>        <dbl> <dbl>             <dbl>
##  1 Argentina     2.85  3.51             23.3 
##  2 Australia     4.45  4.58              2.86
##  3 Azerbaijan    2.33  2.32             -0.15
##  4 Bahrain       3.71  3.71             -0.01
##  5 Brazil        4.80  3.91            -18.6 
##  6 Britain       4.41  4.28             -3.01
##  7 Canada        5.18  5.08             -2.02
##  8 Chile         3.42  3.48              1.82
##  9 China         3.12  3.10             -0.78
## 10 Colombia      3.62  3.29             -9.11
## # … with 46 more rows
…
